rpc/hangzhou.light.votes.out

./tezos-client --mode light rpc get /chains/main/blocks/head/votes/ballot_list
[]
protocol of light mode unspecified, using the node's protocol: PtHangz2aRngywmSRGGvrcTyMbbdpWdpFKuS4uMWxg2RaH9i1qx

./tezos-client --mode light rpc get /chains/main/blocks/head/votes/ballots
{ "yay": 0, "nay": 0, "pass": 0 }
protocol of light mode unspecified, using the node's protocol: PtHangz2aRngywmSRGGvrcTyMbbdpWdpFKuS4uMWxg2RaH9i1qx

./tezos-client --mode light rpc get /chains/main/blocks/head/votes/current_period
{ "voting_period": { "index": 0, "kind": "proposal", "start_position": 0 },
  "position": 1, "remaining": 2 }
protocol of light mode unspecified, using the node's protocol: PtHangz2aRngywmSRGGvrcTyMbbdpWdpFKuS4uMWxg2RaH9i1qx

./tezos-client --mode light rpc get /chains/main/blocks/head/votes/current_proposal
null
protocol of light mode unspecified, using the node's protocol: PtHangz2aRngywmSRGGvrcTyMbbdpWdpFKuS4uMWxg2RaH9i1qx

./tezos-client --mode light rpc get /chains/main/blocks/head/votes/current_quorum
5500
protocol of light mode unspecified, using the node's protocol: PtHangz2aRngywmSRGGvrcTyMbbdpWdpFKuS4uMWxg2RaH9i1qx

./tezos-client --mode light rpc get /chains/main/blocks/head/votes/listings
[ { "pkh": "[PUBLIC_KEY_HASH]", "rolls": 500 },
  { "pkh": "[PUBLIC_KEY_HASH]", "rolls": 500 },
  { "pkh": "[PUBLIC_KEY_HASH]", "rolls": 500 },
  { "pkh": "[PUBLIC_KEY_HASH]", "rolls": 500 },
  { "pkh": "[PUBLIC_KEY_HASH]", "rolls": 500 } ]
protocol of light mode unspecified, using the node's protocol: PtHangz2aRngywmSRGGvrcTyMbbdpWdpFKuS4uMWxg2RaH9i1qx

./tezos-client --mode light rpc get /chains/main/blocks/head/votes/proposals
[ [ "ProtoDemoNoopsDemoNoopsDemoNoopsDemoNoopsDemo6XBoYp", 500 ] ]
protocol of light mode unspecified, using the node's protocol: PtHangz2aRngywmSRGGvrcTyMbbdpWdpFKuS4uMWxg2RaH9i1qx

./tezos-client --mode light rpc get /chains/main/blocks/head/votes/successor_period
{ "voting_period": { "index": 0, "kind": "proposal", "start_position": 0 },
  "position": 2, "remaining": 1 }
protocol of light mode unspecified, using the node's protocol: PtHangz2aRngywmSRGGvrcTyMbbdpWdpFKuS4uMWxg2RaH9i1qx

./tezos-client --mode light rpc get /chains/main/blocks/head/votes/total_voting_power
2500
protocol of light mode unspecified, using the node's protocol: PtHangz2aRngywmSRGGvrcTyMbbdpWdpFKuS4uMWxg2RaH9i1qx

./tezos-client --mode light rpc get /chains/main/blocks/head/votes/ballot_list
[ { "pkh": "[PUBLIC_KEY_HASH]", "ballot": "nay" },
  { "pkh": "[PUBLIC_KEY_HASH]", "ballot": "pass" },
  { "pkh": "[PUBLIC_KEY_HASH]", "ballot": "yay" } ]
protocol of light mode unspecified, using the node's protocol: PtHangz2aRngywmSRGGvrcTyMbbdpWdpFKuS4uMWxg2RaH9i1qx

./tezos-client --mode light rpc get /chains/main/blocks/head/votes/ballots
{ "yay": 500, "nay": 500, "pass": 500 }
protocol of light mode unspecified, using the node's protocol: PtHangz2aRngywmSRGGvrcTyMbbdpWdpFKuS4uMWxg2RaH9i1qx

./tezos-client --mode light rpc get /chains/main/blocks/head/votes/current_period
{ "voting_period": { "index": 1, "kind": "exploration", "start_position": 4 },
  "position": 0, "remaining": 3 }
protocol of light mode unspecified, using the node's protocol: PtHangz2aRngywmSRGGvrcTyMbbdpWdpFKuS4uMWxg2RaH9i1qx

./tezos-client --mode light rpc get /chains/main/blocks/head/votes/current_proposal
"ProtoDemoNoopsDemoNoopsDemoNoopsDemoNoopsDemo6XBoYp"
protocol of light mode unspecified, using the node's protocol: PtHangz2aRngywmSRGGvrcTyMbbdpWdpFKuS4uMWxg2RaH9i1qx

./tezos-client --mode light rpc get /chains/main/blocks/head/votes/current_quorum
5500
protocol of light mode unspecified, using the node's protocol: PtHangz2aRngywmSRGGvrcTyMbbdpWdpFKuS4uMWxg2RaH9i1qx

./tezos-client --mode light rpc get /chains/main/blocks/head/votes/listings
[ { "pkh": "[PUBLIC_KEY_HASH]", "rolls": 500 },
  { "pkh": "[PUBLIC_KEY_HASH]", "rolls": 500 },
  { "pkh": "[PUBLIC_KEY_HASH]", "rolls": 500 },
  { "pkh": "[PUBLIC_KEY_HASH]", "rolls": 500 },
  { "pkh": "[PUBLIC_KEY_HASH]", "rolls": 500 } ]
protocol of light mode unspecified, using the node's protocol: PtHangz2aRngywmSRGGvrcTyMbbdpWdpFKuS4uMWxg2RaH9i1qx

./tezos-client --mode light rpc get /chains/main/blocks/head/votes/proposals
[]
protocol of light mode unspecified, using the node's protocol: PtHangz2aRngywmSRGGvrcTyMbbdpWdpFKuS4uMWxg2RaH9i1qx

./tezos-client --mode light rpc get /chains/main/blocks/head/votes/successor_period
{ "voting_period": { "index": 1, "kind": "exploration", "start_position": 4 },
  "position": 1, "remaining": 2 }
protocol of light mode unspecified, using the node's protocol: PtHangz2aRngywmSRGGvrcTyMbbdpWdpFKuS4uMWxg2RaH9i1qx

./tezos-client --mode light rpc get /chains/main/blocks/head/votes/total_voting_power
2500
protocol of light mode unspecified, using the node's protocol: PtHangz2aRngywmSRGGvrcTyMbbdpWdpFKuS4uMWxg2RaH9i1qx
