sc_rollup_inbox.out

./tezos-client --wait none originate sc rollup from '[PUBLIC_KEY_HASH]' of kind arith booting with  --burn-cap 9999999
Node is bootstrapped.
Estimated gas: 1600.648 units (will add 100 for safety)
Estimated storage: 6522 bytes added (will add 20 for safety)
Operation successfully injected in the node.
Operation hash is '[OPERATION_HASH]'
NOT waiting for the operation to be included.
Use command
  tezos-client wait for [OPERATION_HASH] to be included --confirmations 1 --branch [BLOCK_HASH]
and/or an external block explorer to make sure that it has been included.
This sequence of operations was run:
  Manager signed operations:
    From: [PUBLIC_KEY_HASH]
    Fee to the baker: ꜩ0.000402
    Expected counter: 1
    Gas limit: 1701
    Storage limit: 6542 bytes
    Balance updates:
      [PUBLIC_KEY_HASH] ... -ꜩ0.000402
      payload fees(the block proposer) ....... +ꜩ0.000402
    Originate smart contract rollup of kind arith with boot sector ''
      This smart contract rollup origination was successfully applied
      Consumed gas: 1600.648
      Storage size: 6522 bytes
      Address: [SC_ROLLUP_HASH]
      Balance updates:
        [PUBLIC_KEY_HASH] ... -ꜩ1.6305
        storage fees ........................... +ꜩ1.6305


./tezos-client --wait none send sc rollup message 'text:["CAFEBABE"]' from bootstrap1 to '[SC_ROLLUP_HASH]'
Node is bootstrapped.
Estimated gas: 1620.756 units (will add 100 for safety)
Estimated storage: no bytes added
Operation successfully injected in the node.
Operation hash is '[OPERATION_HASH]'
NOT waiting for the operation to be included.
Use command
  tezos-client wait for [OPERATION_HASH] to be included --confirmations 1 --branch [BLOCK_HASH]
and/or an external block explorer to make sure that it has been included.
This sequence of operations was run:
  Manager signed operations:
    From: [PUBLIC_KEY_HASH]
    Fee to the baker: ꜩ0.00045
    Expected counter: 2
    Gas limit: 1721
    Storage limit: 0 bytes
    Balance updates:
      [PUBLIC_KEY_HASH] ... -ꜩ0.00045
      payload fees(the block proposer) ....... +ꜩ0.00045
    Add a message to the inbox of the smart contract rollup at address [SC_ROLLUP_HASH]
      This operation sending a message to a smart contract rollup was successfully applied
      Consumed gas: 1620.884
      Resulting inbox state: 
         rollup = [SC_ROLLUP_HASH]
         level = 3
         current messages hash  = CoWRmdEAYVrrgP3b41D4JGBBcWE7yAwDUpsmByQkKgrXgGBXa919
         nb_available_messages = 1
         message_counter = 1
         old_levels_messages = 
       content = CoUkdBQ53N7FWav8LuTvrcp3jyoxnpqk3xnEo3gSCgNwia4fq44j
       index = 1
       back_pointers = CoVawGHT9AxoKnd7hDBCii5PEcM2U3WbtL4L5HGD6PC9BWcLnzqD
    
    


./tezos-client --wait none send sc rollup message 'text:["CAFEBABE", "CAFEBABE"]' from bootstrap1 to '[SC_ROLLUP_HASH]'
Node is bootstrapped.
Estimated gas: 1620.948 units (will add 100 for safety)
Estimated storage: no bytes added
Operation successfully injected in the node.
Operation hash is '[OPERATION_HASH]'
NOT waiting for the operation to be included.
Use command
  tezos-client wait for [OPERATION_HASH] to be included --confirmations 1 --branch [BLOCK_HASH]
and/or an external block explorer to make sure that it has been included.
This sequence of operations was run:
  Manager signed operations:
    From: [PUBLIC_KEY_HASH]
    Fee to the baker: ꜩ0.000458
    Expected counter: 3
    Gas limit: 1721
    Storage limit: 0 bytes
    Balance updates:
      [PUBLIC_KEY_HASH] ... -ꜩ0.000458
      payload fees(the block proposer) ....... +ꜩ0.000458
    Add a message to the inbox of the smart contract rollup at address [SC_ROLLUP_HASH]
      This operation sending a message to a smart contract rollup was successfully applied
      Consumed gas: 1621.076
      Resulting inbox state: 
         rollup = [SC_ROLLUP_HASH]
         level = 4
         current messages hash  = CoV1TJhtsn29pgzZGuqfHuifzL9ATej8SZHvBhRP2Vn5VZL92qS7
         nb_available_messages = 3
         message_counter = 2
         old_levels_messages = 
       content = CoWRmdEAYVrrgP3b41D4JGBBcWE7yAwDUpsmByQkKgrXgGBXa919
       index = 2
       back_pointers = CoUmDifn9cHq3g1wRc8ft64oMz7Jha8f4mcUWZd2YRseVae6MQAN
      CoUmDifn9cHq3g1wRc8ft64oMz7Jha8f4mcUWZd2YRseVae6MQAN
    
    


./tezos-client --wait none send sc rollup message 'text:["CAFEBABE", "CAFEBABE", "CAFEBABE"]' from bootstrap1 to '[SC_ROLLUP_HASH]'
Node is bootstrapped.
Estimated gas: 1621.140 units (will add 100 for safety)
Estimated storage: no bytes added
Operation successfully injected in the node.
Operation hash is '[OPERATION_HASH]'
NOT waiting for the operation to be included.
Use command
  tezos-client wait for [OPERATION_HASH] to be included --confirmations 1 --branch [BLOCK_HASH]
and/or an external block explorer to make sure that it has been included.
This sequence of operations was run:
  Manager signed operations:
    From: [PUBLIC_KEY_HASH]
    Fee to the baker: ꜩ0.000466
    Expected counter: 4
    Gas limit: 1722
    Storage limit: 0 bytes
    Balance updates:
      [PUBLIC_KEY_HASH] ... -ꜩ0.000466
      payload fees(the block proposer) ....... +ꜩ0.000466
    Add a message to the inbox of the smart contract rollup at address [SC_ROLLUP_HASH]
      This operation sending a message to a smart contract rollup was successfully applied
      Consumed gas: 1621.140
      Resulting inbox state: 
         rollup = [SC_ROLLUP_HASH]
         level = 5
         current messages hash  = CoUrCPgs65yAxCkBmKGGKSGBNjWfZsW1btE2ert6ii4w5wnk8MtR
         nb_available_messages = 6
         message_counter = 3
         old_levels_messages = 
       content = CoV1TJhtsn29pgzZGuqfHuifzL9ATej8SZHvBhRP2Vn5VZL92qS7
       index = 3
       back_pointers = CoWKpZY8qq5LbUsnCireMyffiZDhvee6xQPXKaRGkuvsoP2eLMQP
      CoUmDifn9cHq3g1wRc8ft64oMz7Jha8f4mcUWZd2YRseVae6MQAN
    
    


./tezos-client --wait none send sc rollup message 'text:["CAFEBABE", "CAFEBABE", "CAFEBABE", "CAFEBABE"]' from bootstrap1 to '[SC_ROLLUP_HASH]'
Node is bootstrapped.
Estimated gas: 1621.140 units (will add 100 for safety)
Estimated storage: no bytes added
Operation successfully injected in the node.
Operation hash is '[OPERATION_HASH]'
NOT waiting for the operation to be included.
Use command
  tezos-client wait for [OPERATION_HASH] to be included --confirmations 1 --branch [BLOCK_HASH]
and/or an external block explorer to make sure that it has been included.
This sequence of operations was run:
  Manager signed operations:
    From: [PUBLIC_KEY_HASH]
    Fee to the baker: ꜩ0.000474
    Expected counter: 5
    Gas limit: 1722
    Storage limit: 0 bytes
    Balance updates:
      [PUBLIC_KEY_HASH] ... -ꜩ0.000474
      payload fees(the block proposer) ....... +ꜩ0.000474
    Add a message to the inbox of the smart contract rollup at address [SC_ROLLUP_HASH]
      This operation sending a message to a smart contract rollup was successfully applied
      Consumed gas: 1621.268
      Resulting inbox state: 
         rollup = [SC_ROLLUP_HASH]
         level = 6
         current messages hash  = CoUtT4yrzi8Sv8TRr2srmwbW62w7KTiFoNbtveVQJDLJ1wsSDRxR
         nb_available_messages = 10
         message_counter = 4
         old_levels_messages = 
       content = CoUrCPgs65yAxCkBmKGGKSGBNjWfZsW1btE2ert6ii4w5wnk8MtR
       index = 4
       back_pointers = CoVkRariwFAf2vpkyzRwQQEFijiz6WEqkTTpgo7x6jMvn5t7VmJM
      CoVkRariwFAf2vpkyzRwQQEFijiz6WEqkTTpgo7x6jMvn5t7VmJM
      CoVkRariwFAf2vpkyzRwQQEFijiz6WEqkTTpgo7x6jMvn5t7VmJM
    
    


./tezos-client --wait none send sc rollup message 'text:["CAFEBABE", "CAFEBABE", "CAFEBABE", "CAFEBABE", "CAFEBABE"]' from bootstrap1 to '[SC_ROLLUP_HASH]'
Node is bootstrapped.
Estimated gas: 1621.332 units (will add 100 for safety)
Estimated storage: no bytes added
Operation successfully injected in the node.
Operation hash is '[OPERATION_HASH]'
NOT waiting for the operation to be included.
Use command
  tezos-client wait for [OPERATION_HASH] to be included --confirmations 1 --branch [BLOCK_HASH]
and/or an external block explorer to make sure that it has been included.
This sequence of operations was run:
  Manager signed operations:
    From: [PUBLIC_KEY_HASH]
    Fee to the baker: ꜩ0.000482
    Expected counter: 6
    Gas limit: 1722
    Storage limit: 0 bytes
    Balance updates:
      [PUBLIC_KEY_HASH] ... -ꜩ0.000482
      payload fees(the block proposer) ....... +ꜩ0.000482
    Add a message to the inbox of the smart contract rollup at address [SC_ROLLUP_HASH]
      This operation sending a message to a smart contract rollup was successfully applied
      Consumed gas: 1621.332
      Resulting inbox state: 
         rollup = [SC_ROLLUP_HASH]
         level = 7
         current messages hash  = CoVVfispYPa41Zmx9eYNACqABGgDtP6GgN6FTgcxrWZ2g8jaKU2M
         nb_available_messages = 15
         message_counter = 5
         old_levels_messages = 
       content = CoUtT4yrzi8Sv8TRr2srmwbW62w7KTiFoNbtveVQJDLJ1wsSDRxR
       index = 5
       back_pointers = CoUgjnuXx3TpsTFyzdB38uh2sqQWSbe5y5j1KBnTTVZBaoziZz59
      CoVkRariwFAf2vpkyzRwQQEFijiz6WEqkTTpgo7x6jMvn5t7VmJM
      CoVkRariwFAf2vpkyzRwQQEFijiz6WEqkTTpgo7x6jMvn5t7VmJM
    
    


./tezos-client --wait none send sc rollup message 'text:["CAFEBABE", "CAFEBABE", "CAFEBABE", "CAFEBABE", "CAFEBABE", "CAFEBABE"]' from bootstrap1 to '[SC_ROLLUP_HASH]'
Node is bootstrapped.
Estimated gas: 1621.332 units (will add 100 for safety)
Estimated storage: no bytes added
Operation successfully injected in the node.
Operation hash is '[OPERATION_HASH]'
NOT waiting for the operation to be included.
Use command
  tezos-client wait for [OPERATION_HASH] to be included --confirmations 1 --branch [BLOCK_HASH]
and/or an external block explorer to make sure that it has been included.
This sequence of operations was run:
  Manager signed operations:
    From: [PUBLIC_KEY_HASH]
    Fee to the baker: ꜩ0.00049
    Expected counter: 7
    Gas limit: 1722
    Storage limit: 0 bytes
    Balance updates:
      [PUBLIC_KEY_HASH] ... -ꜩ0.00049
      payload fees(the block proposer) ....... +ꜩ0.00049
    Add a message to the inbox of the smart contract rollup at address [SC_ROLLUP_HASH]
      This operation sending a message to a smart contract rollup was successfully applied
      Consumed gas: 1621.332
      Resulting inbox state: 
         rollup = [SC_ROLLUP_HASH]
         level = 8
         current messages hash  = CoVtrKm6WjtMqhcVFeJhgzFZKxgzjaJj6Mw5uU8tgwMDtwsa9iqc
         nb_available_messages = 21
         message_counter = 6
         old_levels_messages = 
       content = CoVVfispYPa41Zmx9eYNACqABGgDtP6GgN6FTgcxrWZ2g8jaKU2M
       index = 6
       back_pointers = CoUfHk7kQJxbZkvbaqJAE5PUjmsqsQjVEHWRyQgF7myjuJ5mosFT
      CoUfHk7kQJxbZkvbaqJAE5PUjmsqsQjVEHWRyQgF7myjuJ5mosFT
      CoVkRariwFAf2vpkyzRwQQEFijiz6WEqkTTpgo7x6jMvn5t7VmJM
    
    


./tezos-client --wait none send sc rollup message 'text:["CAFEBABE", "CAFEBABE", "CAFEBABE", "CAFEBABE", "CAFEBABE", "CAFEBABE", "CAFEBABE"]' from bootstrap1 to '[SC_ROLLUP_HASH]'
Node is bootstrapped.
Estimated gas: 1621.332 units (will add 100 for safety)
Estimated storage: no bytes added
Operation successfully injected in the node.
Operation hash is '[OPERATION_HASH]'
NOT waiting for the operation to be included.
Use command
  tezos-client wait for [OPERATION_HASH] to be included --confirmations 1 --branch [BLOCK_HASH]
and/or an external block explorer to make sure that it has been included.
This sequence of operations was run:
  Manager signed operations:
    From: [PUBLIC_KEY_HASH]
    Fee to the baker: ꜩ0.000498
    Expected counter: 8
    Gas limit: 1722
    Storage limit: 0 bytes
    Balance updates:
      [PUBLIC_KEY_HASH] ... -ꜩ0.000498
      payload fees(the block proposer) ....... +ꜩ0.000498
    Add a message to the inbox of the smart contract rollup at address [SC_ROLLUP_HASH]
      This operation sending a message to a smart contract rollup was successfully applied
      Consumed gas: 1621.332
      Resulting inbox state: 
         rollup = [SC_ROLLUP_HASH]
         level = 9
         current messages hash  = CoWRoommUSSQ3b5nXNLktcZ4R35yeFZhnx1Xttj1NoikwvRN48YR
         nb_available_messages = 28
         message_counter = 7
         old_levels_messages = 
       content = CoVtrKm6WjtMqhcVFeJhgzFZKxgzjaJj6Mw5uU8tgwMDtwsa9iqc
       index = 7
       back_pointers = CoW7BnW9bDBhT4soZ553wy2apGXG2m5Zb7bwzRNh3CSwBv3ASp5r
      CoUfHk7kQJxbZkvbaqJAE5PUjmsqsQjVEHWRyQgF7myjuJ5mosFT
      CoVkRariwFAf2vpkyzRwQQEFijiz6WEqkTTpgo7x6jMvn5t7VmJM
    
    


./tezos-client --wait none send sc rollup message 'text:["CAFEBABE", "CAFEBABE", "CAFEBABE", "CAFEBABE", "CAFEBABE", "CAFEBABE", "CAFEBABE", "CAFEBABE"]' from bootstrap1 to '[SC_ROLLUP_HASH]'
Node is bootstrapped.
Estimated gas: 1621.332 units (will add 100 for safety)
Estimated storage: no bytes added
Operation successfully injected in the node.
Operation hash is '[OPERATION_HASH]'
NOT waiting for the operation to be included.
Use command
  tezos-client wait for [OPERATION_HASH] to be included --confirmations 1 --branch [BLOCK_HASH]
and/or an external block explorer to make sure that it has been included.
This sequence of operations was run:
  Manager signed operations:
    From: [PUBLIC_KEY_HASH]
    Fee to the baker: ꜩ0.000506
    Expected counter: 9
    Gas limit: 1722
    Storage limit: 0 bytes
    Balance updates:
      [PUBLIC_KEY_HASH] ... -ꜩ0.000506
      payload fees(the block proposer) ....... +ꜩ0.000506
    Add a message to the inbox of the smart contract rollup at address [SC_ROLLUP_HASH]
      This operation sending a message to a smart contract rollup was successfully applied
      Consumed gas: 1621.460
      Resulting inbox state: 
         rollup = [SC_ROLLUP_HASH]
         level = 10
         current messages hash  = CoW4CuWgoPQ5tXxFcaBq4rgCwz2onSqfCFGik8ZnoLruwwXzieqE
         nb_available_messages = 36
         message_counter = 8
         old_levels_messages = 
       content = CoWRoommUSSQ3b5nXNLktcZ4R35yeFZhnx1Xttj1NoikwvRN48YR
       index = 8
       back_pointers = CoWRto2kLAE7uB6rkvLM81f5HiLaqwPCpahDtdMwfwh2Fzuyysxc
      CoWRto2kLAE7uB6rkvLM81f5HiLaqwPCpahDtdMwfwh2Fzuyysxc
      CoWRto2kLAE7uB6rkvLM81f5HiLaqwPCpahDtdMwfwh2Fzuyysxc
      CoWRto2kLAE7uB6rkvLM81f5HiLaqwPCpahDtdMwfwh2Fzuyysxc
    
    


./tezos-client --wait none send sc rollup message 'text:["CAFEBABE", "CAFEBABE", "CAFEBABE", "CAFEBABE", "CAFEBABE", "CAFEBABE", "CAFEBABE", "CAFEBABE", "CAFEBABE"]' from bootstrap1 to '[SC_ROLLUP_HASH]'
Node is bootstrapped.
Estimated gas: 1621.524 units (will add 100 for safety)
Estimated storage: no bytes added
Operation successfully injected in the node.
Operation hash is '[OPERATION_HASH]'
NOT waiting for the operation to be included.
Use command
  tezos-client wait for [OPERATION_HASH] to be included --confirmations 1 --branch [BLOCK_HASH]
and/or an external block explorer to make sure that it has been included.
This sequence of operations was run:
  Manager signed operations:
    From: [PUBLIC_KEY_HASH]
    Fee to the baker: ꜩ0.000514
    Expected counter: 10
    Gas limit: 1722
    Storage limit: 0 bytes
    Balance updates:
      [PUBLIC_KEY_HASH] ... -ꜩ0.000514
      payload fees(the block proposer) ....... +ꜩ0.000514
    Add a message to the inbox of the smart contract rollup at address [SC_ROLLUP_HASH]
      This operation sending a message to a smart contract rollup was successfully applied
      Consumed gas: 1621.524
      Resulting inbox state: 
         rollup = [SC_ROLLUP_HASH]
         level = 11
         current messages hash  = CoVczpvGG9VMrMHRZDhn3AngQvoebECZAGr2a2gR9BHskwdJM2Ss
         nb_available_messages = 45
         message_counter = 9
         old_levels_messages = 
       content = CoW4CuWgoPQ5tXxFcaBq4rgCwz2onSqfCFGik8ZnoLruwwXzieqE
       index = 9
       back_pointers = CoVt9L69PMARe17mqv7QrLC4zrWAqgY7MYzjBMaCNRxTGEnxdPYQ
      CoWRto2kLAE7uB6rkvLM81f5HiLaqwPCpahDtdMwfwh2Fzuyysxc
      CoWRto2kLAE7uB6rkvLM81f5HiLaqwPCpahDtdMwfwh2Fzuyysxc
      CoWRto2kLAE7uB6rkvLM81f5HiLaqwPCpahDtdMwfwh2Fzuyysxc
    
    


./tezos-client --wait none send sc rollup message 'text:["CAFEBABE", "CAFEBABE", "CAFEBABE", "CAFEBABE", "CAFEBABE", "CAFEBABE", "CAFEBABE", "CAFEBABE", "CAFEBABE", "CAFEBABE"]' from bootstrap1 to '[SC_ROLLUP_HASH]'
Node is bootstrapped.
Estimated gas: 1621.524 units (will add 100 for safety)
Estimated storage: no bytes added
Operation successfully injected in the node.
Operation hash is '[OPERATION_HASH]'
NOT waiting for the operation to be included.
Use command
  tezos-client wait for [OPERATION_HASH] to be included --confirmations 1 --branch [BLOCK_HASH]
and/or an external block explorer to make sure that it has been included.
This sequence of operations was run:
  Manager signed operations:
    From: [PUBLIC_KEY_HASH]
    Fee to the baker: ꜩ0.000522
    Expected counter: 11
    Gas limit: 1722
    Storage limit: 0 bytes
    Balance updates:
      [PUBLIC_KEY_HASH] ... -ꜩ0.000522
      payload fees(the block proposer) ....... +ꜩ0.000522
    Add a message to the inbox of the smart contract rollup at address [SC_ROLLUP_HASH]
      This operation sending a message to a smart contract rollup was successfully applied
      Consumed gas: 1621.524
      Resulting inbox state: 
         rollup = [SC_ROLLUP_HASH]
         level = 12
         current messages hash  = CoVArejYYgj97RSuSR4pGRqjg2mK7Jd8dWYnDS9zgcWQdDcXUNs8
         nb_available_messages = 55
         message_counter = 10
         old_levels_messages = 
       content = CoVczpvGG9VMrMHRZDhn3AngQvoebECZAGr2a2gR9BHskwdJM2Ss
       index = 10
       back_pointers = CoVhmVBZu2NvTWKhuAPmn8PcHUfogCKsAkMF5Va7MZpnsabqU7Fy
      CoVhmVBZu2NvTWKhuAPmn8PcHUfogCKsAkMF5Va7MZpnsabqU7Fy
      CoWRto2kLAE7uB6rkvLM81f5HiLaqwPCpahDtdMwfwh2Fzuyysxc
      CoWRto2kLAE7uB6rkvLM81f5HiLaqwPCpahDtdMwfwh2Fzuyysxc
    
    

